(kicad_symbol_lib (version 20220914) (generator kicad_symbol_editor)
  (symbol "ATSAML21E15B-AUT" (in_bom yes) (on_board yes)
    (property "Reference" "U" (at -15.24 22.86 0)
      (effects (font (size 1.27 1.27)))
    )
    (property "Value" "ATSAML21E15B-AUT" (at -12.7 -22.86 0)
      (effects (font (size 1.27 1.27)))
    )
    (property "Footprint" "Package_QFP:TQFP-32_7x7mm_P0.8mm" (at 30.48 22.86 0)
      (effects (font (size 1.27 1.27)) hide)
    )
    (property "Datasheet" "http://ww1.microchip.com/downloads/en/DeviceDoc/60001477A.pdf" (at 0 0 0)
      (effects (font (size 1.27 1.27)) hide)
    )
    (property "ki_keywords" "32-bit ARM Cortex-M0+ MCU Microcontroller" (at 0 0 0)
      (effects (font (size 1.27 1.27)) hide)
    )
    (property "ki_description" "SAM L21 Microchip SMART ARM-based Flash MCU, 48Mhz, 32K Flash, 4K SRAM, TQFP32" (at 0 0 0)
      (effects (font (size 1.27 1.27)) hide)
    )
    (property "ki_fp_filters" "TQFP*7x7mm*P0.8mm*" (at 0 0 0)
      (effects (font (size 1.27 1.27)) hide)
    )
    (symbol "ATSAML21E15B-AUT_0_1"
      (rectangle (start -15.24 20.32) (end 15.24 -20.32)
        (stroke (width 0.254) (type default))
        (fill (type background))
      )
    )
    (symbol "ATSAML21E15B-AUT_1_1"
      (pin bidirectional line (at -17.78 15.24 0) (length 2.54)
        (name "PA00" (effects (font (size 1.27 1.27))))
        (number "1" (effects (font (size 1.27 1.27))))
      )
      (pin power_in line (at 0 -22.86 90) (length 2.54)
        (name "GND" (effects (font (size 1.27 1.27))))
        (number "10" (effects (font (size 1.27 1.27))))
      )
      (pin bidirectional line (at -17.78 -5.08 0) (length 2.54)
        (name "PA08" (effects (font (size 1.27 1.27))))
        (number "11" (effects (font (size 1.27 1.27))))
      )
      (pin bidirectional line (at -17.78 -7.62 0) (length 2.54)
        (name "PA09" (effects (font (size 1.27 1.27))))
        (number "12" (effects (font (size 1.27 1.27))))
      )
      (pin bidirectional line (at -17.78 -10.16 0) (length 2.54)
        (name "PA10" (effects (font (size 1.27 1.27))))
        (number "13" (effects (font (size 1.27 1.27))))
      )
      (pin bidirectional line (at -17.78 -12.7 0) (length 2.54)
        (name "PA11" (effects (font (size 1.27 1.27))))
        (number "14" (effects (font (size 1.27 1.27))))
      )
      (pin bidirectional line (at 17.78 15.24 180) (length 2.54)
        (name "PA14" (effects (font (size 1.27 1.27))))
        (number "15" (effects (font (size 1.27 1.27))))
      )
      (pin bidirectional line (at 17.78 12.7 180) (length 2.54)
        (name "PA15" (effects (font (size 1.27 1.27))))
        (number "16" (effects (font (size 1.27 1.27))))
      )
      (pin bidirectional line (at 17.78 10.16 180) (length 2.54)
        (name "PA16" (effects (font (size 1.27 1.27))))
        (number "17" (effects (font (size 1.27 1.27))))
      )
      (pin bidirectional line (at 17.78 7.62 180) (length 2.54)
        (name "PA17" (effects (font (size 1.27 1.27))))
        (number "18" (effects (font (size 1.27 1.27))))
      )
      (pin bidirectional line (at 17.78 5.08 180) (length 2.54)
        (name "PA18" (effects (font (size 1.27 1.27))))
        (number "19" (effects (font (size 1.27 1.27))))
      )
      (pin bidirectional line (at -17.78 12.7 0) (length 2.54)
        (name "PA01" (effects (font (size 1.27 1.27))))
        (number "2" (effects (font (size 1.27 1.27))))
      )
      (pin bidirectional line (at 17.78 2.54 180) (length 2.54)
        (name "PA19" (effects (font (size 1.27 1.27))))
        (number "20" (effects (font (size 1.27 1.27))))
      )
      (pin bidirectional line (at 17.78 0 180) (length 2.54)
        (name "PA22" (effects (font (size 1.27 1.27))))
        (number "21" (effects (font (size 1.27 1.27))))
      )
      (pin bidirectional line (at 17.78 -2.54 180) (length 2.54)
        (name "PA23" (effects (font (size 1.27 1.27))))
        (number "22" (effects (font (size 1.27 1.27))))
      )
      (pin bidirectional line (at 17.78 -5.08 180) (length 2.54)
        (name "PA24" (effects (font (size 1.27 1.27))))
        (number "23" (effects (font (size 1.27 1.27))))
      )
      (pin bidirectional line (at 17.78 -7.62 180) (length 2.54)
        (name "PA25" (effects (font (size 1.27 1.27))))
        (number "24" (effects (font (size 1.27 1.27))))
      )
      (pin bidirectional line (at 17.78 -10.16 180) (length 2.54)
        (name "PA27" (effects (font (size 1.27 1.27))))
        (number "25" (effects (font (size 1.27 1.27))))
      )
      (pin input line (at -17.78 -17.78 0) (length 2.54)
        (name "~{RESET}" (effects (font (size 1.27 1.27))))
        (number "26" (effects (font (size 1.27 1.27))))
      )
      (pin power_in line (at 2.54 22.86 270) (length 2.54)
        (name "VDDCORE" (effects (font (size 1.27 1.27))))
        (number "27" (effects (font (size 1.27 1.27))))
      )
      (pin passive line (at 0 -22.86 90) (length 2.54) hide
        (name "GND" (effects (font (size 1.27 1.27))))
        (number "28" (effects (font (size 1.27 1.27))))
      )
      (pin power_out line (at 5.08 22.86 270) (length 2.54)
        (name "VSW" (effects (font (size 1.27 1.27))))
        (number "29" (effects (font (size 1.27 1.27))))
      )
      (pin bidirectional line (at -17.78 10.16 0) (length 2.54)
        (name "PA02" (effects (font (size 1.27 1.27))))
        (number "3" (effects (font (size 1.27 1.27))))
      )
      (pin power_in line (at 7.62 22.86 270) (length 2.54)
        (name "VDDIN" (effects (font (size 1.27 1.27))))
        (number "30" (effects (font (size 1.27 1.27))))
      )
      (pin bidirectional line (at 17.78 -12.7 180) (length 2.54)
        (name "PA30" (effects (font (size 1.27 1.27))))
        (number "31" (effects (font (size 1.27 1.27))))
      )
      (pin bidirectional line (at 17.78 -15.24 180) (length 2.54)
        (name "PA31" (effects (font (size 1.27 1.27))))
        (number "32" (effects (font (size 1.27 1.27))))
      )
      (pin bidirectional line (at -17.78 7.62 0) (length 2.54)
        (name "PA03" (effects (font (size 1.27 1.27))))
        (number "4" (effects (font (size 1.27 1.27))))
      )
      (pin bidirectional line (at -17.78 5.08 0) (length 2.54)
        (name "PA04" (effects (font (size 1.27 1.27))))
        (number "5" (effects (font (size 1.27 1.27))))
      )
      (pin bidirectional line (at -17.78 2.54 0) (length 2.54)
        (name "PA05" (effects (font (size 1.27 1.27))))
        (number "6" (effects (font (size 1.27 1.27))))
      )
      (pin bidirectional line (at -17.78 0 0) (length 2.54)
        (name "PA06" (effects (font (size 1.27 1.27))))
        (number "7" (effects (font (size 1.27 1.27))))
      )
      (pin bidirectional line (at -17.78 -2.54 0) (length 2.54)
        (name "PA07" (effects (font (size 1.27 1.27))))
        (number "8" (effects (font (size 1.27 1.27))))
      )
      (pin power_in line (at -7.62 22.86 270) (length 2.54)
        (name "VDDANA" (effects (font (size 1.27 1.27))))
        (number "9" (effects (font (size 1.27 1.27))))
      )
    )
  )
  (symbol "ATSAML21E16B-AUT" (extends "ATSAML21E15B-AUT")
    (property "Reference" "U" (at -17.78 22.86 0)
      (effects (font (size 1.27 1.27)))
    )
    (property "Value" "ATSAML21E16B-AUT" (at -12.7 -22.86 0)
      (effects (font (size 1.27 1.27)))
    )
    (property "Footprint" "Package_QFP:TQFP-32_7x7mm_P0.8mm" (at 25.4 22.86 0)
      (effects (font (size 1.27 1.27)) hide)
    )
    (property "Datasheet" "http://ww1.microchip.com/downloads/en/DeviceDoc/60001477A.pdf" (at 0 0 0)
      (effects (font (size 1.27 1.27)) hide)
    )
    (property "ki_keywords" "32-bit ARM Cortex-M0+ MCU Microcontroller" (at 0 0 0)
      (effects (font (size 1.27 1.27)) hide)
    )
    (property "ki_description" "SAM L21 Microchip SMART ARM-based Flash MCU, 48Mhz, 64K Flash, 8K SRAM, TQFP32" (at 0 0 0)
      (effects (font (size 1.27 1.27)) hide)
    )
    (property "ki_fp_filters" "TQFP*7x7mm*P0.8mm*" (at 0 0 0)
      (effects (font (size 1.27 1.27)) hide)
    )
  )
  (symbol "ATSAML21E17B-AUT" (extends "ATSAML21E15B-AUT")
    (property "Reference" "U" (at -17.78 22.86 0)
      (effects (font (size 1.27 1.27)))
    )
    (property "Value" "ATSAML21E17B-AUT" (at -12.7 -22.86 0)
      (effects (font (size 1.27 1.27)))
    )
    (property "Footprint" "Package_QFP:TQFP-32_7x7mm_P0.8mm" (at 25.4 22.86 0)
      (effects (font (size 1.27 1.27)) hide)
    )
    (property "Datasheet" "http://ww1.microchip.com/downloads/en/DeviceDoc/60001477A.pdf" (at 0 0 0)
      (effects (font (size 1.27 1.27)) hide)
    )
    (property "ki_keywords" "32-bit ARM Cortex-M0+ MCU Microcontroller" (at 0 0 0)
      (effects (font (size 1.27 1.27)) hide)
    )
    (property "ki_description" "SAM L21 Microchip SMART ARM-based Flash MCU, 48Mhz, 128K Flash, 16K SRAM, TQFP32" (at 0 0 0)
      (effects (font (size 1.27 1.27)) hide)
    )
    (property "ki_fp_filters" "TQFP*7x7mm*P0.8mm*" (at 0 0 0)
      (effects (font (size 1.27 1.27)) hide)
    )
  )
  (symbol "ATSAML21E18B-AUT" (extends "ATSAML21E15B-AUT")
    (property "Reference" "U" (at -17.78 22.86 0)
      (effects (font (size 1.27 1.27)))
    )
    (property "Value" "ATSAML21E18B-AUT" (at -12.7 -22.86 0)
      (effects (font (size 1.27 1.27)))
    )
    (property "Footprint" "Package_QFP:TQFP-32_7x7mm_P0.8mm" (at 25.4 22.86 0)
      (effects (font (size 1.27 1.27)) hide)
    )
    (property "Datasheet" "http://ww1.microchip.com/downloads/en/DeviceDoc/60001477A.pdf" (at 0 0 0)
      (effects (font (size 1.27 1.27)) hide)
    )
    (property "ki_keywords" "32-bit ARM Cortex-M0+ MCU Microcontroller" (at 0 0 0)
      (effects (font (size 1.27 1.27)) hide)
    )
    (property "ki_description" "SAM L21 Microchip SMART ARM-based Flash MCU, 48Mhz, 256K Flash, 32K SRAM, TQFP32" (at 0 0 0)
      (effects (font (size 1.27 1.27)) hide)
    )
    (property "ki_fp_filters" "TQFP*7x7mm*P0.8mm*" (at 0 0 0)
      (effects (font (size 1.27 1.27)) hide)
    )
  )
  (symbol "ATSAML21E15B-MUT" (in_bom yes) (on_board yes)
    (property "Reference" "U" (at -15.24 22.86 0)
      (effects (font (size 1.27 1.27)))
    )
    (property "Value" "ATSAML21E15B-MUT" (at -12.7 -22.86 0)
      (effects (font (size 1.27 1.27)))
    )
    (property "Footprint" "Package_DFN_QFN:QFN-32-1EP_5x5mm_P0.5mm_EP3.45x3.45mm" (at 43.18 22.86 0)
      (effects (font (size 1.27 1.27)) hide)
    )
    (property "Datasheet" "http://ww1.microchip.com/downloads/en/DeviceDoc/60001477A.pdf" (at 0 0 0)
      (effects (font (size 1.27 1.27)) hide)
    )
    (property "ki_keywords" "32-bit ARM Cortex-M0+ MCU Microcontroller" (at 0 0 0)
      (effects (font (size 1.27 1.27)) hide)
    )
    (property "ki_description" "SAM L21 Microchip SMART ARM-based Flash MCU, 48Mhz, 32K Flash, 4K SRAM, QFN32" (at 0 0 0)
      (effects (font (size 1.27 1.27)) hide)
    )
    (property "ki_fp_filters" "QFN*1EP*5x5mm*P0.5mm*" (at 0 0 0)
      (effects (font (size 1.27 1.27)) hide)
    )
    (symbol "ATSAML21E15B-MUT_0_1"
      (rectangle (start -15.24 20.32) (end 15.24 -20.32)
        (stroke (width 0.254) (type default))
        (fill (type background))
      )
    )
    (symbol "ATSAML21E15B-MUT_1_1"
      (pin bidirectional line (at -17.78 15.24 0) (length 2.54)
        (name "PA00" (effects (font (size 1.27 1.27))))
        (number "1" (effects (font (size 1.27 1.27))))
      )
      (pin power_in line (at 0 -22.86 90) (length 2.54)
        (name "GND" (effects (font (size 1.27 1.27))))
        (number "10" (effects (font (size 1.27 1.27))))
      )
      (pin bidirectional line (at -17.78 -5.08 0) (length 2.54)
        (name "PA08" (effects (font (size 1.27 1.27))))
        (number "11" (effects (font (size 1.27 1.27))))
      )
      (pin bidirectional line (at -17.78 -7.62 0) (length 2.54)
        (name "PA09" (effects (font (size 1.27 1.27))))
        (number "12" (effects (font (size 1.27 1.27))))
      )
      (pin bidirectional line (at -17.78 -10.16 0) (length 2.54)
        (name "PA10" (effects (font (size 1.27 1.27))))
        (number "13" (effects (font (size 1.27 1.27))))
      )
      (pin bidirectional line (at -17.78 -12.7 0) (length 2.54)
        (name "PA11" (effects (font (size 1.27 1.27))))
        (number "14" (effects (font (size 1.27 1.27))))
      )
      (pin bidirectional line (at 17.78 15.24 180) (length 2.54)
        (name "PA14" (effects (font (size 1.27 1.27))))
        (number "15" (effects (font (size 1.27 1.27))))
      )
      (pin bidirectional line (at 17.78 12.7 180) (length 2.54)
        (name "PA15" (effects (font (size 1.27 1.27))))
        (number "16" (effects (font (size 1.27 1.27))))
      )
      (pin bidirectional line (at 17.78 10.16 180) (length 2.54)
        (name "PA16" (effects (font (size 1.27 1.27))))
        (number "17" (effects (font (size 1.27 1.27))))
      )
      (pin bidirectional line (at 17.78 7.62 180) (length 2.54)
        (name "PA17" (effects (font (size 1.27 1.27))))
        (number "18" (effects (font (size 1.27 1.27))))
      )
      (pin bidirectional line (at 17.78 5.08 180) (length 2.54)
        (name "PA18" (effects (font (size 1.27 1.27))))
        (number "19" (effects (font (size 1.27 1.27))))
      )
      (pin bidirectional line (at -17.78 12.7 0) (length 2.54)
        (name "PA01" (effects (font (size 1.27 1.27))))
        (number "2" (effects (font (size 1.27 1.27))))
      )
      (pin bidirectional line (at 17.78 2.54 180) (length 2.54)
        (name "PA19" (effects (font (size 1.27 1.27))))
        (number "20" (effects (font (size 1.27 1.27))))
      )
      (pin bidirectional line (at 17.78 0 180) (length 2.54)
        (name "PA22" (effects (font (size 1.27 1.27))))
        (number "21" (effects (font (size 1.27 1.27))))
      )
      (pin bidirectional line (at 17.78 -2.54 180) (length 2.54)
        (name "PA23" (effects (font (size 1.27 1.27))))
        (number "22" (effects (font (size 1.27 1.27))))
      )
      (pin bidirectional line (at 17.78 -5.08 180) (length 2.54)
        (name "PA24" (effects (font (size 1.27 1.27))))
        (number "23" (effects (font (size 1.27 1.27))))
      )
      (pin bidirectional line (at 17.78 -7.62 180) (length 2.54)
        (name "PA25" (effects (font (size 1.27 1.27))))
        (number "24" (effects (font (size 1.27 1.27))))
      )
      (pin bidirectional line (at 17.78 -10.16 180) (length 2.54)
        (name "PA27" (effects (font (size 1.27 1.27))))
        (number "25" (effects (font (size 1.27 1.27))))
      )
      (pin input line (at -17.78 -17.78 0) (length 2.54)
        (name "~{RESET}" (effects (font (size 1.27 1.27))))
        (number "26" (effects (font (size 1.27 1.27))))
      )
      (pin power_in line (at 2.54 22.86 270) (length 2.54)
        (name "VDDCORE" (effects (font (size 1.27 1.27))))
        (number "27" (effects (font (size 1.27 1.27))))
      )
      (pin passive line (at 0 -22.86 90) (length 2.54) hide
        (name "GND" (effects (font (size 1.27 1.27))))
        (number "28" (effects (font (size 1.27 1.27))))
      )
      (pin power_out line (at 5.08 22.86 270) (length 2.54)
        (name "VSW" (effects (font (size 1.27 1.27))))
        (number "29" (effects (font (size 1.27 1.27))))
      )
      (pin bidirectional line (at -17.78 10.16 0) (length 2.54)
        (name "PA02" (effects (font (size 1.27 1.27))))
        (number "3" (effects (font (size 1.27 1.27))))
      )
      (pin power_in line (at 7.62 22.86 270) (length 2.54)
        (name "VDDIN" (effects (font (size 1.27 1.27))))
        (number "30" (effects (font (size 1.27 1.27))))
      )
      (pin bidirectional line (at 17.78 -12.7 180) (length 2.54)
        (name "PA30" (effects (font (size 1.27 1.27))))
        (number "31" (effects (font (size 1.27 1.27))))
      )
      (pin bidirectional line (at 17.78 -15.24 180) (length 2.54)
        (name "PA31" (effects (font (size 1.27 1.27))))
        (number "32" (effects (font (size 1.27 1.27))))
      )
      (pin bidirectional line (at -17.78 7.62 0) (length 2.54)
        (name "PA03" (effects (font (size 1.27 1.27))))
        (number "4" (effects (font (size 1.27 1.27))))
      )
      (pin bidirectional line (at -17.78 5.08 0) (length 2.54)
        (name "PA04" (effects (font (size 1.27 1.27))))
        (number "5" (effects (font (size 1.27 1.27))))
      )
      (pin bidirectional line (at -17.78 2.54 0) (length 2.54)
        (name "PA05" (effects (font (size 1.27 1.27))))
        (number "6" (effects (font (size 1.27 1.27))))
      )
      (pin bidirectional line (at -17.78 0 0) (length 2.54)
        (name "PA06" (effects (font (size 1.27 1.27))))
        (number "7" (effects (font (size 1.27 1.27))))
      )
      (pin bidirectional line (at -17.78 -2.54 0) (length 2.54)
        (name "PA07" (effects (font (size 1.27 1.27))))
        (number "8" (effects (font (size 1.27 1.27))))
      )
      (pin power_in line (at -7.62 22.86 270) (length 2.54)
        (name "VDDANA" (effects (font (size 1.27 1.27))))
        (number "9" (effects (font (size 1.27 1.27))))
      )
    )
  )
  (symbol "ATSAML21E16B-MUT" (extends "ATSAML21E15B-MUT")
    (property "Reference" "U" (at -17.78 22.86 0)
      (effects (font (size 1.27 1.27)))
    )
    (property "Value" "ATSAML21E16B-MUT" (at -12.7 -22.86 0)
      (effects (font (size 1.27 1.27)))
    )
    (property "Footprint" "Package_DFN_QFN:QFN-32-1EP_5x5mm_P0.5mm_EP3.45x3.45mm" (at 30.48 22.86 0)
      (effects (font (size 1.27 1.27)) hide)
    )
    (property "Datasheet" "http://ww1.microchip.com/downloads/en/DeviceDoc/60001477A.pdf" (at 0 0 0)
      (effects (font (size 1.27 1.27)) hide)
    )
    (property "ki_keywords" "32-bit ARM Cortex-M0+ MCU Microcontroller" (at 0 0 0)
      (effects (font (size 1.27 1.27)) hide)
    )
    (property "ki_description" "SAM L21 Microchip SMART ARM-based Flash MCU, 48Mhz, 64K Flash, 8K SRAM, QFN32" (at 0 0 0)
      (effects (font (size 1.27 1.27)) hide)
    )
    (property "ki_fp_filters" "QFN*1EP*5x5mm*P0.5mm*" (at 0 0 0)
      (effects (font (size 1.27 1.27)) hide)
    )
  )
  (symbol "ATSAML21E17B-MUT" (extends "ATSAML21E15B-MUT")
    (property "Reference" "U" (at -17.78 22.86 0)
      (effects (font (size 1.27 1.27)))
    )
    (property "Value" "ATSAML21E17B-MUT" (at -12.7 -22.86 0)
      (effects (font (size 1.27 1.27)))
    )
    (property "Footprint" "Package_DFN_QFN:QFN-32-1EP_5x5mm_P0.5mm_EP3.45x3.45mm" (at 30.48 22.86 0)
      (effects (font (size 1.27 1.27)) hide)
    )
    (property "Datasheet" "http://ww1.microchip.com/downloads/en/DeviceDoc/60001477A.pdf" (at 0 0 0)
      (effects (font (size 1.27 1.27)) hide)
    )
    (property "ki_keywords" "32-bit ARM Cortex-M0+ MCU Microcontroller" (at 0 0 0)
      (effects (font (size 1.27 1.27)) hide)
    )
    (property "ki_description" "SAM L21 Microchip SMART ARM-based Flash MCU, 48Mhz, 128K Flash, 16K SRAM, QFN32" (at 0 0 0)
      (effects (font (size 1.27 1.27)) hide)
    )
    (property "ki_fp_filters" "QFN*1EP*5x5mm*P0.5mm*" (at 0 0 0)
      (effects (font (size 1.27 1.27)) hide)
    )
  )
  (symbol "ATSAML21E18B-MUT" (extends "ATSAML21E15B-MUT")
    (property "Reference" "U" (at -17.78 22.86 0)
      (effects (font (size 1.27 1.27)))
    )
    (property "Value" "ATSAML21E18B-MUT" (at -12.7 -22.86 0)
      (effects (font (size 1.27 1.27)))
    )
    (property "Footprint" "Package_DFN_QFN:QFN-32-1EP_5x5mm_P0.5mm_EP3.45x3.45mm" (at 30.48 22.86 0)
      (effects (font (size 1.27 1.27)) hide)
    )
    (property "Datasheet" "http://ww1.microchip.com/downloads/en/DeviceDoc/60001477A.pdf" (at 0 0 0)
      (effects (font (size 1.27 1.27)) hide)
    )
    (property "ki_keywords" "32-bit ARM Cortex-M0+ MCU Microcontroller" (at 0 0 0)
      (effects (font (size 1.27 1.27)) hide)
    )
    (property "ki_description" "SAM L21 Microchip SMART ARM-based Flash MCU, 48Mhz, 256K Flash, 32K SRAM, QFN32" (at 0 0 0)
      (effects (font (size 1.27 1.27)) hide)
    )
    (property "ki_fp_filters" "QFN*1EP*5x5mm*P0.5mm*" (at 0 0 0)
      (effects (font (size 1.27 1.27)) hide)
    )
  )
  (symbol "ATSAML21G16B-AUT" (in_bom yes) (on_board yes)
    (property "Reference" "U" (at -15.24 45.72 0)
      (effects (font (size 1.27 1.27)))
    )
    (property "Value" "ATSAML21G16B-AUT" (at -15.24 -45.72 0)
      (effects (font (size 1.27 1.27)))
    )
    (property "Footprint" "Package_QFP:TQFP-48_7x7mm_P0.5mm" (at 29.21 45.72 0)
      (effects (font (size 1.27 1.27)) hide)
    )
    (property "Datasheet" "http://ww1.microchip.com/downloads/en/DeviceDoc/60001477A.pdf" (at 0 0 0)
      (effects (font (size 1.27 1.27)) hide)
    )
    (property "ki_keywords" "32-bit ARM Cortex-M0+ MCU Microcontroller" (at 0 0 0)
      (effects (font (size 1.27 1.27)) hide)
    )
    (property "ki_description" "SAM L21 Microchip SMART ARM-based Flash MCU, 48Mhz, 64K Flash, 8K SRAM, TQFP48" (at 0 0 0)
      (effects (font (size 1.27 1.27)) hide)
    )
    (property "ki_fp_filters" "TQFP*7x7mm*P0.5mm*" (at 0 0 0)
      (effects (font (size 1.27 1.27)) hide)
    )
    (symbol "ATSAML21G16B-AUT_0_1"
      (rectangle (start -15.24 43.18) (end 15.24 -43.18)
        (stroke (width 0.254) (type default))
        (fill (type background))
      )
    )
    (symbol "ATSAML21G16B-AUT_1_1"
      (pin bidirectional line (at -17.78 38.1 0) (length 2.54)
        (name "PA00" (effects (font (size 1.27 1.27))))
        (number "1" (effects (font (size 1.27 1.27))))
      )
      (pin bidirectional line (at -17.78 25.4 0) (length 2.54)
        (name "PA05" (effects (font (size 1.27 1.27))))
        (number "10" (effects (font (size 1.27 1.27))))
      )
      (pin bidirectional line (at -17.78 22.86 0) (length 2.54)
        (name "PA06" (effects (font (size 1.27 1.27))))
        (number "11" (effects (font (size 1.27 1.27))))
      )
      (pin bidirectional line (at -17.78 20.32 0) (length 2.54)
        (name "PA07" (effects (font (size 1.27 1.27))))
        (number "12" (effects (font (size 1.27 1.27))))
      )
      (pin bidirectional line (at -17.78 17.78 0) (length 2.54)
        (name "PA08" (effects (font (size 1.27 1.27))))
        (number "13" (effects (font (size 1.27 1.27))))
      )
      (pin bidirectional line (at -17.78 15.24 0) (length 2.54)
        (name "PA09" (effects (font (size 1.27 1.27))))
        (number "14" (effects (font (size 1.27 1.27))))
      )
      (pin bidirectional line (at -17.78 12.7 0) (length 2.54)
        (name "PA10" (effects (font (size 1.27 1.27))))
        (number "15" (effects (font (size 1.27 1.27))))
      )
      (pin bidirectional line (at -17.78 10.16 0) (length 2.54)
        (name "PA11" (effects (font (size 1.27 1.27))))
        (number "16" (effects (font (size 1.27 1.27))))
      )
      (pin power_in line (at -2.54 45.72 270) (length 2.54)
        (name "VDDIO" (effects (font (size 1.27 1.27))))
        (number "17" (effects (font (size 1.27 1.27))))
      )
      (pin power_in line (at 2.54 -45.72 90) (length 2.54)
        (name "GND" (effects (font (size 1.27 1.27))))
        (number "18" (effects (font (size 1.27 1.27))))
      )
      (pin bidirectional line (at 17.78 12.7 180) (length 2.54)
        (name "PB10" (effects (font (size 1.27 1.27))))
        (number "19" (effects (font (size 1.27 1.27))))
      )
      (pin bidirectional line (at -17.78 35.56 0) (length 2.54)
        (name "PA01" (effects (font (size 1.27 1.27))))
        (number "2" (effects (font (size 1.27 1.27))))
      )
      (pin bidirectional line (at 17.78 10.16 180) (length 2.54)
        (name "PB11" (effects (font (size 1.27 1.27))))
        (number "20" (effects (font (size 1.27 1.27))))
      )
      (pin bidirectional line (at -17.78 7.62 0) (length 2.54)
        (name "PA12" (effects (font (size 1.27 1.27))))
        (number "21" (effects (font (size 1.27 1.27))))
      )
      (pin bidirectional line (at -17.78 5.08 0) (length 2.54)
        (name "PA13" (effects (font (size 1.27 1.27))))
        (number "22" (effects (font (size 1.27 1.27))))
      )
      (pin bidirectional line (at -17.78 2.54 0) (length 2.54)
        (name "PA14" (effects (font (size 1.27 1.27))))
        (number "23" (effects (font (size 1.27 1.27))))
      )
      (pin bidirectional line (at -17.78 0 0) (length 2.54)
        (name "PA15" (effects (font (size 1.27 1.27))))
        (number "24" (effects (font (size 1.27 1.27))))
      )
      (pin bidirectional line (at -17.78 -2.54 0) (length 2.54)
        (name "PA16" (effects (font (size 1.27 1.27))))
        (number "25" (effects (font (size 1.27 1.27))))
      )
      (pin bidirectional line (at -17.78 -5.08 0) (length 2.54)
        (name "PA17" (effects (font (size 1.27 1.27))))
        (number "26" (effects (font (size 1.27 1.27))))
      )
      (pin bidirectional line (at -17.78 -7.62 0) (length 2.54)
        (name "PA18" (effects (font (size 1.27 1.27))))
        (number "27" (effects (font (size 1.27 1.27))))
      )
      (pin bidirectional line (at -17.78 -10.16 0) (length 2.54)
        (name "PA19" (effects (font (size 1.27 1.27))))
        (number "28" (effects (font (size 1.27 1.27))))
      )
      (pin bidirectional line (at -17.78 -12.7 0) (length 2.54)
        (name "PA20" (effects (font (size 1.27 1.27))))
        (number "29" (effects (font (size 1.27 1.27))))
      )
      (pin bidirectional line (at -17.78 33.02 0) (length 2.54)
        (name "PA02" (effects (font (size 1.27 1.27))))
        (number "3" (effects (font (size 1.27 1.27))))
      )
      (pin bidirectional line (at -17.78 -15.24 0) (length 2.54)
        (name "PA21" (effects (font (size 1.27 1.27))))
        (number "30" (effects (font (size 1.27 1.27))))
      )
      (pin bidirectional line (at -17.78 -17.78 0) (length 2.54)
        (name "PA22" (effects (font (size 1.27 1.27))))
        (number "31" (effects (font (size 1.27 1.27))))
      )
      (pin bidirectional line (at -17.78 -20.32 0) (length 2.54)
        (name "PA23" (effects (font (size 1.27 1.27))))
        (number "32" (effects (font (size 1.27 1.27))))
      )
      (pin bidirectional line (at -17.78 -22.86 0) (length 2.54)
        (name "PA24" (effects (font (size 1.27 1.27))))
        (number "33" (effects (font (size 1.27 1.27))))
      )
      (pin bidirectional line (at -17.78 -25.4 0) (length 2.54)
        (name "PA25" (effects (font (size 1.27 1.27))))
        (number "34" (effects (font (size 1.27 1.27))))
      )
      (pin passive line (at 2.54 -45.72 90) (length 2.54) hide
        (name "GND" (effects (font (size 1.27 1.27))))
        (number "35" (effects (font (size 1.27 1.27))))
      )
      (pin passive line (at -2.54 45.72 270) (length 2.54) hide
        (name "VDDIO" (effects (font (size 1.27 1.27))))
        (number "36" (effects (font (size 1.27 1.27))))
      )
      (pin bidirectional line (at 17.78 -17.78 180) (length 2.54)
        (name "PB22" (effects (font (size 1.27 1.27))))
        (number "37" (effects (font (size 1.27 1.27))))
      )
      (pin bidirectional line (at 17.78 -20.32 180) (length 2.54)
        (name "PB23" (effects (font (size 1.27 1.27))))
        (number "38" (effects (font (size 1.27 1.27))))
      )
      (pin bidirectional line (at -17.78 -27.94 0) (length 2.54)
        (name "PA27" (effects (font (size 1.27 1.27))))
        (number "39" (effects (font (size 1.27 1.27))))
      )
      (pin bidirectional line (at -17.78 30.48 0) (length 2.54)
        (name "PA03" (effects (font (size 1.27 1.27))))
        (number "4" (effects (font (size 1.27 1.27))))
      )
      (pin input line (at -17.78 -38.1 0) (length 2.54)
        (name "~{RESET}" (effects (font (size 1.27 1.27))))
        (number "40" (effects (font (size 1.27 1.27))))
      )
      (pin power_in line (at 2.54 45.72 270) (length 2.54)
        (name "VDDCORE" (effects (font (size 1.27 1.27))))
        (number "41" (effects (font (size 1.27 1.27))))
      )
      (pin passive line (at 2.54 -45.72 90) (length 2.54) hide
        (name "GND" (effects (font (size 1.27 1.27))))
        (number "42" (effects (font (size 1.27 1.27))))
      )
      (pin power_out line (at 5.08 45.72 270) (length 2.54)
        (name "VSW" (effects (font (size 1.27 1.27))))
        (number "43" (effects (font (size 1.27 1.27))))
      )
      (pin power_in line (at 7.62 45.72 270) (length 2.54)
        (name "VDDIN" (effects (font (size 1.27 1.27))))
        (number "44" (effects (font (size 1.27 1.27))))
      )
      (pin bidirectional line (at -17.78 -30.48 0) (length 2.54)
        (name "PA30" (effects (font (size 1.27 1.27))))
        (number "45" (effects (font (size 1.27 1.27))))
      )
      (pin bidirectional line (at -17.78 -33.02 0) (length 2.54)
        (name "PA31" (effects (font (size 1.27 1.27))))
        (number "46" (effects (font (size 1.27 1.27))))
      )
      (pin bidirectional line (at 17.78 33.02 180) (length 2.54)
        (name "PB02" (effects (font (size 1.27 1.27))))
        (number "47" (effects (font (size 1.27 1.27))))
      )
      (pin bidirectional line (at 17.78 30.48 180) (length 2.54)
        (name "PB03" (effects (font (size 1.27 1.27))))
        (number "48" (effects (font (size 1.27 1.27))))
      )
      (pin power_in line (at -2.54 -45.72 90) (length 2.54)
        (name "GNDANA" (effects (font (size 1.27 1.27))))
        (number "5" (effects (font (size 1.27 1.27))))
      )
      (pin power_in line (at -7.62 45.72 270) (length 2.54)
        (name "VDDANA" (effects (font (size 1.27 1.27))))
        (number "6" (effects (font (size 1.27 1.27))))
      )
      (pin bidirectional line (at 17.78 17.78 180) (length 2.54)
        (name "PB08" (effects (font (size 1.27 1.27))))
        (number "7" (effects (font (size 1.27 1.27))))
      )
      (pin bidirectional line (at 17.78 15.24 180) (length 2.54)
        (name "PB09" (effects (font (size 1.27 1.27))))
        (number "8" (effects (font (size 1.27 1.27))))
      )
      (pin bidirectional line (at -17.78 27.94 0) (length 2.54)
        (name "PA04" (effects (font (size 1.27 1.27))))
        (number "9" (effects (font (size 1.27 1.27))))
      )
    )
  )
  (symbol "ATSAML21G17B-AUT" (extends "ATSAML21G16B-AUT")
    (property "Reference" "U" (at -17.78 45.72 0)
      (effects (font (size 1.27 1.27)))
    )
    (property "Value" "ATSAML21G17B-AUT" (at -15.24 -45.72 0)
      (effects (font (size 1.27 1.27)))
    )
    (property "Footprint" "Package_QFP:TQFP-48_7x7mm_P0.5mm" (at 29.21 45.72 0)
      (effects (font (size 1.27 1.27)) hide)
    )
    (property "Datasheet" "http://ww1.microchip.com/downloads/en/DeviceDoc/60001477A.pdf" (at 0 0 0)
      (effects (font (size 1.27 1.27)) hide)
    )
    (property "ki_keywords" "32-bit ARM Cortex-M0+ MCU Microcontroller" (at 0 0 0)
      (effects (font (size 1.27 1.27)) hide)
    )
    (property "ki_description" "SAM L21 Microchip SMART ARM-based Flash MCU, 48Mhz, 128K Flash, 16K SRAM, TQFP48" (at 0 0 0)
      (effects (font (size 1.27 1.27)) hide)
    )
    (property "ki_fp_filters" "TQFP*7x7mm*P0.5mm*" (at 0 0 0)
      (effects (font (size 1.27 1.27)) hide)
    )
  )
  (symbol "ATSAML21G18B-AUT" (extends "ATSAML21G16B-AUT")
    (property "Reference" "U" (at -17.78 45.72 0)
      (effects (font (size 1.27 1.27)))
    )
    (property "Value" "ATSAML21G18B-AUT" (at -15.24 -45.72 0)
      (effects (font (size 1.27 1.27)))
    )
    (property "Footprint" "Package_QFP:TQFP-48_7x7mm_P0.5mm" (at 29.21 45.72 0)
      (effects (font (size 1.27 1.27)) hide)
    )
    (property "Datasheet" "http://ww1.microchip.com/downloads/en/DeviceDoc/60001477A.pdf" (at 0 0 0)
      (effects (font (size 1.27 1.27)) hide)
    )
    (property "ki_keywords" "32-bit ARM Cortex-M0+ MCU Microcontroller" (at 0 0 0)
      (effects (font (size 1.27 1.27)) hide)
    )
    (property "ki_description" "SAM L21 Microchip SMART ARM-based Flash MCU, 48Mhz, 256K Flash, 32K SRAM, TQFP48" (at 0 0 0)
      (effects (font (size 1.27 1.27)) hide)
    )
    (property "ki_fp_filters" "TQFP*7x7mm*P0.5mm*" (at 0 0 0)
      (effects (font (size 1.27 1.27)) hide)
    )
  )
  (symbol "ATSAML21G16B-MUT" (in_bom yes) (on_board yes)
    (property "Reference" "U" (at -15.24 45.72 0)
      (effects (font (size 1.27 1.27)))
    )
    (property "Value" "ATSAML21G16B-MUT" (at -15.24 -45.72 0)
      (effects (font (size 1.27 1.27)))
    )
    (property "Footprint" "Package_DFN_QFN:QFN-48-1EP_7x7mm_P0.5mm_EP5.15x5.15mm" (at 33.02 45.72 0)
      (effects (font (size 1.27 1.27)) hide)
    )
    (property "Datasheet" "http://ww1.microchip.com/downloads/en/DeviceDoc/60001477A.pdf" (at 0 0 0)
      (effects (font (size 1.27 1.27)) hide)
    )
    (property "ki_keywords" "32-bit ARM Cortex-M0+ MCU Microcontroller" (at 0 0 0)
      (effects (font (size 1.27 1.27)) hide)
    )
    (property "ki_description" "SAM L21 Microchip SMART ARM-based Flash MCU, 48Mhz, 64K Flash, 8K SRAM, QFN48" (at 0 0 0)
      (effects (font (size 1.27 1.27)) hide)
    )
    (property "ki_fp_filters" "QFN*1EP*7x7mm*P0.5mm*" (at 0 0 0)
      (effects (font (size 1.27 1.27)) hide)
    )
    (symbol "ATSAML21G16B-MUT_0_1"
      (rectangle (start -15.24 43.18) (end 15.24 -43.18)
        (stroke (width 0.254) (type default))
        (fill (type background))
      )
    )
    (symbol "ATSAML21G16B-MUT_1_1"
      (pin bidirectional line (at -17.78 38.1 0) (length 2.54)
        (name "PA00" (effects (font (size 1.27 1.27))))
        (number "1" (effects (font (size 1.27 1.27))))
      )
      (pin bidirectional line (at -17.78 25.4 0) (length 2.54)
        (name "PA05" (effects (font (size 1.27 1.27))))
        (number "10" (effects (font (size 1.27 1.27))))
      )
      (pin bidirectional line (at -17.78 22.86 0) (length 2.54)
        (name "PA06" (effects (font (size 1.27 1.27))))
        (number "11" (effects (font (size 1.27 1.27))))
      )
      (pin bidirectional line (at -17.78 20.32 0) (length 2.54)
        (name "PA07" (effects (font (size 1.27 1.27))))
        (number "12" (effects (font (size 1.27 1.27))))
      )
      (pin bidirectional line (at -17.78 17.78 0) (length 2.54)
        (name "PA08" (effects (font (size 1.27 1.27))))
        (number "13" (effects (font (size 1.27 1.27))))
      )
      (pin bidirectional line (at -17.78 15.24 0) (length 2.54)
        (name "PA09" (effects (font (size 1.27 1.27))))
        (number "14" (effects (font (size 1.27 1.27))))
      )
      (pin bidirectional line (at -17.78 12.7 0) (length 2.54)
        (name "PA10" (effects (font (size 1.27 1.27))))
        (number "15" (effects (font (size 1.27 1.27))))
      )
      (pin bidirectional line (at -17.78 10.16 0) (length 2.54)
        (name "PA11" (effects (font (size 1.27 1.27))))
        (number "16" (effects (font (size 1.27 1.27))))
      )
      (pin power_in line (at -2.54 45.72 270) (length 2.54)
        (name "VDDIO" (effects (font (size 1.27 1.27))))
        (number "17" (effects (font (size 1.27 1.27))))
      )
      (pin power_in line (at 2.54 -45.72 90) (length 2.54)
        (name "GND" (effects (font (size 1.27 1.27))))
        (number "18" (effects (font (size 1.27 1.27))))
      )
      (pin bidirectional line (at 17.78 12.7 180) (length 2.54)
        (name "PB10" (effects (font (size 1.27 1.27))))
        (number "19" (effects (font (size 1.27 1.27))))
      )
      (pin bidirectional line (at -17.78 35.56 0) (length 2.54)
        (name "PA01" (effects (font (size 1.27 1.27))))
        (number "2" (effects (font (size 1.27 1.27))))
      )
      (pin bidirectional line (at 17.78 10.16 180) (length 2.54)
        (name "PB11" (effects (font (size 1.27 1.27))))
        (number "20" (effects (font (size 1.27 1.27))))
      )
      (pin bidirectional line (at -17.78 7.62 0) (length 2.54)
        (name "PA12" (effects (font (size 1.27 1.27))))
        (number "21" (effects (font (size 1.27 1.27))))
      )
      (pin bidirectional line (at -17.78 5.08 0) (length 2.54)
        (name "PA13" (effects (font (size 1.27 1.27))))
        (number "22" (effects (font (size 1.27 1.27))))
      )
      (pin bidirectional line (at -17.78 2.54 0) (length 2.54)
        (name "PA14" (effects (font (size 1.27 1.27))))
        (number "23" (effects (font (size 1.27 1.27))))
      )
      (pin bidirectional line (at -17.78 0 0) (length 2.54)
        (name "PA15" (effects (font (size 1.27 1.27))))
        (number "24" (effects (font (size 1.27 1.27))))
      )
      (pin bidirectional line (at -17.78 -2.54 0) (length 2.54)
        (name "PA16" (effects (font (size 1.27 1.27))))
        (number "25" (effects (font (size 1.27 1.27))))
      )
      (pin bidirectional line (at -17.78 -5.08 0) (length 2.54)
        (name "PA17" (effects (font (size 1.27 1.27))))
        (number "26" (effects (font (size 1.27 1.27))))
      )
      (pin bidirectional line (at -17.78 -7.62 0) (length 2.54)
        (name "PA18" (effects (font (size 1.27 1.27))))
        (number "27" (effects (font (size 1.27 1.27))))
      )
      (pin bidirectional line (at -17.78 -10.16 0) (length 2.54)
        (name "PA19" (effects (font (size 1.27 1.27))))
        (number "28" (effects (font (size 1.27 1.27))))
      )
      (pin bidirectional line (at -17.78 -12.7 0) (length 2.54)
        (name "PA20" (effects (font (size 1.27 1.27))))
        (number "29" (effects (font (size 1.27 1.27))))
      )
      (pin bidirectional line (at -17.78 33.02 0) (length 2.54)
        (name "PA02" (effects (font (size 1.27 1.27))))
        (number "3" (effects (font (size 1.27 1.27))))
      )
      (pin bidirectional line (at -17.78 -15.24 0) (length 2.54)
        (name "PA21" (effects (font (size 1.27 1.27))))
        (number "30" (effects (font (size 1.27 1.27))))
      )
      (pin bidirectional line (at -17.78 -17.78 0) (length 2.54)
        (name "PA22" (effects (font (size 1.27 1.27))))
        (number "31" (effects (font (size 1.27 1.27))))
      )
      (pin bidirectional line (at -17.78 -20.32 0) (length 2.54)
        (name "PA23" (effects (font (size 1.27 1.27))))
        (number "32" (effects (font (size 1.27 1.27))))
      )
      (pin bidirectional line (at -17.78 -22.86 0) (length 2.54)
        (name "PA24" (effects (font (size 1.27 1.27))))
        (number "33" (effects (font (size 1.27 1.27))))
      )
      (pin bidirectional line (at -17.78 -25.4 0) (length 2.54)
        (name "PA25" (effects (font (size 1.27 1.27))))
        (number "34" (effects (font (size 1.27 1.27))))
      )
      (pin passive line (at 2.54 -45.72 90) (length 2.54) hide
        (name "GND" (effects (font (size 1.27 1.27))))
        (number "35" (effects (font (size 1.27 1.27))))
      )
      (pin passive line (at -2.54 45.72 270) (length 2.54) hide
        (name "VDDIO" (effects (font (size 1.27 1.27))))
        (number "36" (effects (font (size 1.27 1.27))))
      )
      (pin bidirectional line (at 17.78 -17.78 180) (length 2.54)
        (name "PB22" (effects (font (size 1.27 1.27))))
        (number "37" (effects (font (size 1.27 1.27))))
      )
      (pin bidirectional line (at 17.78 -20.32 180) (length 2.54)
        (name "PB23" (effects (font (size 1.27 1.27))))
        (number "38" (effects (font (size 1.27 1.27))))
      )
      (pin bidirectional line (at -17.78 -27.94 0) (length 2.54)
        (name "PA27" (effects (font (size 1.27 1.27))))
        (number "39" (effects (font (size 1.27 1.27))))
      )
      (pin bidirectional line (at -17.78 30.48 0) (length 2.54)
        (name "PA03" (effects (font (size 1.27 1.27))))
        (number "4" (effects (font (size 1.27 1.27))))
      )
      (pin input line (at -17.78 -38.1 0) (length 2.54)
        (name "~{RESET}" (effects (font (size 1.27 1.27))))
        (number "40" (effects (font (size 1.27 1.27))))
      )
      (pin power_in line (at 2.54 45.72 270) (length 2.54)
        (name "VDDCORE" (effects (font (size 1.27 1.27))))
        (number "41" (effects (font (size 1.27 1.27))))
      )
      (pin passive line (at 2.54 -45.72 90) (length 2.54) hide
        (name "GND" (effects (font (size 1.27 1.27))))
        (number "42" (effects (font (size 1.27 1.27))))
      )
      (pin power_out line (at 5.08 45.72 270) (length 2.54)
        (name "VSW" (effects (font (size 1.27 1.27))))
        (number "43" (effects (font (size 1.27 1.27))))
      )
      (pin power_in line (at 7.62 45.72 270) (length 2.54)
        (name "VDDIN" (effects (font (size 1.27 1.27))))
        (number "44" (effects (font (size 1.27 1.27))))
      )
      (pin bidirectional line (at -17.78 -30.48 0) (length 2.54)
        (name "PA30" (effects (font (size 1.27 1.27))))
        (number "45" (effects (font (size 1.27 1.27))))
      )
      (pin bidirectional line (at -17.78 -33.02 0) (length 2.54)
        (name "PA31" (effects (font (size 1.27 1.27))))
        (number "46" (effects (font (size 1.27 1.27))))
      )
      (pin bidirectional line (at 17.78 33.02 180) (length 2.54)
        (name "PB02" (effects (font (size 1.27 1.27))))
        (number "47" (effects (font (size 1.27 1.27))))
      )
      (pin bidirectional line (at 17.78 30.48 180) (length 2.54)
        (name "PB03" (effects (font (size 1.27 1.27))))
        (number "48" (effects (font (size 1.27 1.27))))
      )
      (pin power_in line (at -2.54 -45.72 90) (length 2.54)
        (name "GNDANA" (effects (font (size 1.27 1.27))))
        (number "5" (effects (font (size 1.27 1.27))))
      )
      (pin power_in line (at -7.62 45.72 270) (length 2.54)
        (name "VDDANA" (effects (font (size 1.27 1.27))))
        (number "6" (effects (font (size 1.27 1.27))))
      )
      (pin bidirectional line (at 17.78 17.78 180) (length 2.54)
        (name "PB08" (effects (font (size 1.27 1.27))))
        (number "7" (effects (font (size 1.27 1.27))))
      )
      (pin bidirectional line (at 17.78 15.24 180) (length 2.54)
        (name "PB09" (effects (font (size 1.27 1.27))))
        (number "8" (effects (font (size 1.27 1.27))))
      )
      (pin bidirectional line (at -17.78 27.94 0) (length 2.54)
        (name "PA04" (effects (font (size 1.27 1.27))))
        (number "9" (effects (font (size 1.27 1.27))))
      )
    )
  )
  (symbol "ATSAML21G17B-MUT" (extends "ATSAML21G16B-MUT")
    (property "Reference" "U" (at -17.78 45.72 0)
      (effects (font (size 1.27 1.27)))
    )
    (property "Value" "ATSAML21G17B-MUT" (at -15.24 -45.72 0)
      (effects (font (size 1.27 1.27)))
    )
    (property "Footprint" "Package_DFN_QFN:QFN-48-1EP_7x7mm_P0.5mm_EP5.15x5.15mm" (at 33.02 45.72 0)
      (effects (font (size 1.27 1.27)) hide)
    )
    (property "Datasheet" "http://ww1.microchip.com/downloads/en/DeviceDoc/60001477A.pdf" (at 0 0 0)
      (effects (font (size 1.27 1.27)) hide)
    )
    (property "ki_keywords" "32-bit ARM Cortex-M0+ MCU Microcontroller" (at 0 0 0)
      (effects (font (size 1.27 1.27)) hide)
    )
    (property "ki_description" "SAM L21 Microchip SMART ARM-based Flash MCU, 48Mhz, 128K Flash, 16K SRAM, QFN48" (at 0 0 0)
      (effects (font (size 1.27 1.27)) hide)
    )
    (property "ki_fp_filters" "QFN*1EP*7x7mm*P0.5mm*" (at 0 0 0)
      (effects (font (size 1.27 1.27)) hide)
    )
  )
  (symbol "ATSAML21G18B-MUT" (extends "ATSAML21G16B-MUT")
    (property "Reference" "U" (at -17.78 45.72 0)
      (effects (font (size 1.27 1.27)))
    )
    (property "Value" "ATSAML21G18B-MUT" (at -15.24 -45.72 0)
      (effects (font (size 1.27 1.27)))
    )
    (property "Footprint" "Package_DFN_QFN:QFN-48-1EP_7x7mm_P0.5mm_EP5.15x5.15mm" (at 33.02 45.72 0)
      (effects (font (size 1.27 1.27)) hide)
    )
    (property "Datasheet" "http://ww1.microchip.com/downloads/en/DeviceDoc/60001477A.pdf" (at 0 0 0)
      (effects (font (size 1.27 1.27)) hide)
    )
    (property "ki_keywords" "32-bit ARM Cortex-M0+ MCU Microcontroller" (at 0 0 0)
      (effects (font (size 1.27 1.27)) hide)
    )
    (property "ki_description" "SAM L21 Microchip SMART ARM-based Flash MCU, 48Mhz, 256K Flash, 32K SRAM, QFN48" (at 0 0 0)
      (effects (font (size 1.27 1.27)) hide)
    )
    (property "ki_fp_filters" "QFN*1EP*7x7mm*P0.5mm*" (at 0 0 0)
      (effects (font (size 1.27 1.27)) hide)
    )
  )
  (symbol "ATSAML21J16B-AUT" (in_bom yes) (on_board yes)
    (property "Reference" "U" (at -15.24 45.72 0)
      (effects (font (size 1.27 1.27)))
    )
    (property "Value" "ATSAML21J16B-AUT" (at -15.24 -45.72 0)
      (effects (font (size 1.27 1.27)))
    )
    (property "Footprint" "Package_QFP:TQFP-64_10x10mm_P0.5mm" (at 30.48 45.72 0)
      (effects (font (size 1.27 1.27)) hide)
    )
    (property "Datasheet" "http://ww1.microchip.com/downloads/en/DeviceDoc/60001477A.pdf" (at 0 0 0)
      (effects (font (size 1.27 1.27)) hide)
    )
    (property "ki_keywords" "32-bit ARM Cortex-M0+ MCU Microcontroller" (at 0 0 0)
      (effects (font (size 1.27 1.27)) hide)
    )
    (property "ki_description" "SAM L21 Microchip SMART ARM-based Flash MCU, 48Mhz, 64K Flash, 8K SRAM, TQFP64" (at 0 0 0)
      (effects (font (size 1.27 1.27)) hide)
    )
    (property "ki_fp_filters" "TQFP*64*10x10mm*P0.5mm*" (at 0 0 0)
      (effects (font (size 1.27 1.27)) hide)
    )
    (symbol "ATSAML21J16B-AUT_0_1"
      (rectangle (start -15.24 43.18) (end 15.24 -43.18)
        (stroke (width 0.254) (type default))
        (fill (type background))
      )
    )
    (symbol "ATSAML21J16B-AUT_1_1"
      (pin bidirectional line (at -17.78 38.1 0) (length 2.54)
        (name "PA00" (effects (font (size 1.27 1.27))))
        (number "1" (effects (font (size 1.27 1.27))))
      )
      (pin bidirectional line (at 17.78 20.32 180) (length 2.54)
        (name "PB07" (effects (font (size 1.27 1.27))))
        (number "10" (effects (font (size 1.27 1.27))))
      )
      (pin bidirectional line (at 17.78 17.78 180) (length 2.54)
        (name "PB08" (effects (font (size 1.27 1.27))))
        (number "11" (effects (font (size 1.27 1.27))))
      )
      (pin bidirectional line (at 17.78 15.24 180) (length 2.54)
        (name "PB09" (effects (font (size 1.27 1.27))))
        (number "12" (effects (font (size 1.27 1.27))))
      )
      (pin bidirectional line (at -17.78 27.94 0) (length 2.54)
        (name "PA04" (effects (font (size 1.27 1.27))))
        (number "13" (effects (font (size 1.27 1.27))))
      )
      (pin bidirectional line (at -17.78 25.4 0) (length 2.54)
        (name "PA05" (effects (font (size 1.27 1.27))))
        (number "14" (effects (font (size 1.27 1.27))))
      )
      (pin bidirectional line (at -17.78 22.86 0) (length 2.54)
        (name "PA06" (effects (font (size 1.27 1.27))))
        (number "15" (effects (font (size 1.27 1.27))))
      )
      (pin bidirectional line (at -17.78 20.32 0) (length 2.54)
        (name "PA07" (effects (font (size 1.27 1.27))))
        (number "16" (effects (font (size 1.27 1.27))))
      )
      (pin bidirectional line (at -17.78 17.78 0) (length 2.54)
        (name "PA08" (effects (font (size 1.27 1.27))))
        (number "17" (effects (font (size 1.27 1.27))))
      )
      (pin bidirectional line (at -17.78 15.24 0) (length 2.54)
        (name "PA09" (effects (font (size 1.27 1.27))))
        (number "18" (effects (font (size 1.27 1.27))))
      )
      (pin bidirectional line (at -17.78 12.7 0) (length 2.54)
        (name "PA10" (effects (font (size 1.27 1.27))))
        (number "19" (effects (font (size 1.27 1.27))))
      )
      (pin bidirectional line (at -17.78 35.56 0) (length 2.54)
        (name "PA01" (effects (font (size 1.27 1.27))))
        (number "2" (effects (font (size 1.27 1.27))))
      )
      (pin bidirectional line (at -17.78 10.16 0) (length 2.54)
        (name "PA11" (effects (font (size 1.27 1.27))))
        (number "20" (effects (font (size 1.27 1.27))))
      )
      (pin power_in line (at -2.54 45.72 270) (length 2.54)
        (name "VDDIO" (effects (font (size 1.27 1.27))))
        (number "21" (effects (font (size 1.27 1.27))))
      )
      (pin power_in line (at 2.54 -45.72 90) (length 2.54)
        (name "GND" (effects (font (size 1.27 1.27))))
        (number "22" (effects (font (size 1.27 1.27))))
      )
      (pin bidirectional line (at 17.78 12.7 180) (length 2.54)
        (name "PB10" (effects (font (size 1.27 1.27))))
        (number "23" (effects (font (size 1.27 1.27))))
      )
      (pin bidirectional line (at 17.78 10.16 180) (length 2.54)
        (name "PB11" (effects (font (size 1.27 1.27))))
        (number "24" (effects (font (size 1.27 1.27))))
      )
      (pin bidirectional line (at 17.78 7.62 180) (length 2.54)
        (name "PB12" (effects (font (size 1.27 1.27))))
        (number "25" (effects (font (size 1.27 1.27))))
      )
      (pin bidirectional line (at 17.78 5.08 180) (length 2.54)
        (name "PB13" (effects (font (size 1.27 1.27))))
        (number "26" (effects (font (size 1.27 1.27))))
      )
      (pin bidirectional line (at 17.78 2.54 180) (length 2.54)
        (name "PB14" (effects (font (size 1.27 1.27))))
        (number "27" (effects (font (size 1.27 1.27))))
      )
      (pin bidirectional line (at 17.78 0 180) (length 2.54)
        (name "PB15" (effects (font (size 1.27 1.27))))
        (number "28" (effects (font (size 1.27 1.27))))
      )
      (pin bidirectional line (at -17.78 7.62 0) (length 2.54)
        (name "PA12" (effects (font (size 1.27 1.27))))
        (number "29" (effects (font (size 1.27 1.27))))
      )
      (pin bidirectional line (at -17.78 33.02 0) (length 2.54)
        (name "PA02" (effects (font (size 1.27 1.27))))
        (number "3" (effects (font (size 1.27 1.27))))
      )
      (pin bidirectional line (at -17.78 5.08 0) (length 2.54)
        (name "PA13" (effects (font (size 1.27 1.27))))
        (number "30" (effects (font (size 1.27 1.27))))
      )
      (pin bidirectional line (at -17.78 2.54 0) (length 2.54)
        (name "PA14" (effects (font (size 1.27 1.27))))
        (number "31" (effects (font (size 1.27 1.27))))
      )
      (pin bidirectional line (at -17.78 0 0) (length 2.54)
        (name "PA15" (effects (font (size 1.27 1.27))))
        (number "32" (effects (font (size 1.27 1.27))))
      )
      (pin passive line (at 2.54 -45.72 90) (length 2.54) hide
        (name "GND" (effects (font (size 1.27 1.27))))
        (number "33" (effects (font (size 1.27 1.27))))
      )
      (pin passive line (at -2.54 45.72 270) (length 2.54) hide
        (name "VDDIO" (effects (font (size 1.27 1.27))))
        (number "34" (effects (font (size 1.27 1.27))))
      )
      (pin bidirectional line (at -17.78 -2.54 0) (length 2.54)
        (name "PA16" (effects (font (size 1.27 1.27))))
        (number "35" (effects (font (size 1.27 1.27))))
      )
      (pin bidirectional line (at -17.78 -5.08 0) (length 2.54)
        (name "PA17" (effects (font (size 1.27 1.27))))
        (number "36" (effects (font (size 1.27 1.27))))
      )
      (pin bidirectional line (at -17.78 -7.62 0) (length 2.54)
        (name "PA18" (effects (font (size 1.27 1.27))))
        (number "37" (effects (font (size 1.27 1.27))))
      )
      (pin bidirectional line (at -17.78 -10.16 0) (length 2.54)
        (name "PA19" (effects (font (size 1.27 1.27))))
        (number "38" (effects (font (size 1.27 1.27))))
      )
      (pin bidirectional line (at 17.78 -2.54 180) (length 2.54)
        (name "PB16" (effects (font (size 1.27 1.27))))
        (number "39" (effects (font (size 1.27 1.27))))
      )
      (pin bidirectional line (at -17.78 30.48 0) (length 2.54)
        (name "PA03" (effects (font (size 1.27 1.27))))
        (number "4" (effects (font (size 1.27 1.27))))
      )
      (pin bidirectional line (at 17.78 -5.08 180) (length 2.54)
        (name "PB17" (effects (font (size 1.27 1.27))))
        (number "40" (effects (font (size 1.27 1.27))))
      )
      (pin bidirectional line (at -17.78 -12.7 0) (length 2.54)
        (name "PA20" (effects (font (size 1.27 1.27))))
        (number "41" (effects (font (size 1.27 1.27))))
      )
      (pin bidirectional line (at -17.78 -15.24 0) (length 2.54)
        (name "PA21" (effects (font (size 1.27 1.27))))
        (number "42" (effects (font (size 1.27 1.27))))
      )
      (pin bidirectional line (at -17.78 -17.78 0) (length 2.54)
        (name "PA22" (effects (font (size 1.27 1.27))))
        (number "43" (effects (font (size 1.27 1.27))))
      )
      (pin bidirectional line (at -17.78 -20.32 0) (length 2.54)
        (name "PA23" (effects (font (size 1.27 1.27))))
        (number "44" (effects (font (size 1.27 1.27))))
      )
      (pin bidirectional line (at -17.78 -22.86 0) (length 2.54)
        (name "PA24" (effects (font (size 1.27 1.27))))
        (number "45" (effects (font (size 1.27 1.27))))
      )
      (pin bidirectional line (at -17.78 -25.4 0) (length 2.54)
        (name "PA25" (effects (font (size 1.27 1.27))))
        (number "46" (effects (font (size 1.27 1.27))))
      )
      (pin passive line (at 2.54 -45.72 90) (length 2.54) hide
        (name "GND" (effects (font (size 1.27 1.27))))
        (number "47" (effects (font (size 1.27 1.27))))
      )
      (pin passive line (at -2.54 45.72 270) (length 2.54) hide
        (name "VDDIO" (effects (font (size 1.27 1.27))))
        (number "48" (effects (font (size 1.27 1.27))))
      )
      (pin bidirectional line (at 17.78 -17.78 180) (length 2.54)
        (name "PB22" (effects (font (size 1.27 1.27))))
        (number "49" (effects (font (size 1.27 1.27))))
      )
      (pin bidirectional line (at 17.78 27.94 180) (length 2.54)
        (name "PB04" (effects (font (size 1.27 1.27))))
        (number "5" (effects (font (size 1.27 1.27))))
      )
      (pin bidirectional line (at 17.78 -20.32 180) (length 2.54)
        (name "PB23" (effects (font (size 1.27 1.27))))
        (number "50" (effects (font (size 1.27 1.27))))
      )
      (pin bidirectional line (at -17.78 -27.94 0) (length 2.54)
        (name "PA27" (effects (font (size 1.27 1.27))))
        (number "51" (effects (font (size 1.27 1.27))))
      )
      (pin input line (at -17.78 -38.1 0) (length 2.54)
        (name "~{RESET}" (effects (font (size 1.27 1.27))))
        (number "52" (effects (font (size 1.27 1.27))))
      )
      (pin power_in line (at 2.54 45.72 270) (length 2.54)
        (name "VDDCORE" (effects (font (size 1.27 1.27))))
        (number "53" (effects (font (size 1.27 1.27))))
      )
      (pin passive line (at 2.54 -45.72 90) (length 2.54) hide
        (name "GND" (effects (font (size 1.27 1.27))))
        (number "54" (effects (font (size 1.27 1.27))))
      )
      (pin power_out line (at 5.08 45.72 270) (length 2.54)
        (name "VSW" (effects (font (size 1.27 1.27))))
        (number "55" (effects (font (size 1.27 1.27))))
      )
      (pin power_in line (at 7.62 45.72 270) (length 2.54)
        (name "VDDIN" (effects (font (size 1.27 1.27))))
        (number "56" (effects (font (size 1.27 1.27))))
      )
      (pin bidirectional line (at -17.78 -30.48 0) (length 2.54)
        (name "PA30" (effects (font (size 1.27 1.27))))
        (number "57" (effects (font (size 1.27 1.27))))
      )
      (pin bidirectional line (at -17.78 -33.02 0) (length 2.54)
        (name "PA31" (effects (font (size 1.27 1.27))))
        (number "58" (effects (font (size 1.27 1.27))))
      )
      (pin bidirectional line (at 17.78 -30.48 180) (length 2.54)
        (name "PB30" (effects (font (size 1.27 1.27))))
        (number "59" (effects (font (size 1.27 1.27))))
      )
      (pin bidirectional line (at 17.78 25.4 180) (length 2.54)
        (name "PB05" (effects (font (size 1.27 1.27))))
        (number "6" (effects (font (size 1.27 1.27))))
      )
      (pin bidirectional line (at 17.78 -33.02 180) (length 2.54)
        (name "PB31" (effects (font (size 1.27 1.27))))
        (number "60" (effects (font (size 1.27 1.27))))
      )
      (pin bidirectional line (at 17.78 38.1 180) (length 2.54)
        (name "PB00" (effects (font (size 1.27 1.27))))
        (number "61" (effects (font (size 1.27 1.27))))
      )
      (pin bidirectional line (at 17.78 35.56 180) (length 2.54)
        (name "PB01" (effects (font (size 1.27 1.27))))
        (number "62" (effects (font (size 1.27 1.27))))
      )
      (pin bidirectional line (at 17.78 33.02 180) (length 2.54)
        (name "PB02" (effects (font (size 1.27 1.27))))
        (number "63" (effects (font (size 1.27 1.27))))
      )
      (pin bidirectional line (at 17.78 30.48 180) (length 2.54)
        (name "PB03" (effects (font (size 1.27 1.27))))
        (number "64" (effects (font (size 1.27 1.27))))
      )
      (pin power_in line (at -2.54 -45.72 90) (length 2.54)
        (name "GNDANA" (effects (font (size 1.27 1.27))))
        (number "7" (effects (font (size 1.27 1.27))))
      )
      (pin power_in line (at -7.62 45.72 270) (length 2.54)
        (name "VDDANA" (effects (font (size 1.27 1.27))))
        (number "8" (effects (font (size 1.27 1.27))))
      )
      (pin bidirectional line (at 17.78 22.86 180) (length 2.54)
        (name "PB06" (effects (font (size 1.27 1.27))))
        (number "9" (effects (font (size 1.27 1.27))))
      )
    )
  )
  (symbol "ATSAML21J17B-AUT" (extends "ATSAML21J16B-AUT")
    (property "Reference" "U" (at -17.78 45.72 0)
      (effects (font (size 1.27 1.27)))
    )
    (property "Value" "ATSAML21J17B-AUT" (at -15.24 -45.72 0)
      (effects (font (size 1.27 1.27)))
    )
    (property "Footprint" "Package_QFP:TQFP-64_10x10mm_P0.5mm" (at 30.48 45.72 0)
      (effects (font (size 1.27 1.27)) hide)
    )
    (property "Datasheet" "http://ww1.microchip.com/downloads/en/DeviceDoc/60001477A.pdf" (at 0 0 0)
      (effects (font (size 1.27 1.27)) hide)
    )
    (property "ki_keywords" "32-bit ARM Cortex-M0+ MCU Microcontroller" (at 0 0 0)
      (effects (font (size 1.27 1.27)) hide)
    )
    (property "ki_description" "SAM L21 Microchip SMART ARM-based Flash MCU, 48Mhz, 128K Flash, 16K SRAM, TQFP64" (at 0 0 0)
      (effects (font (size 1.27 1.27)) hide)
    )
    (property "ki_fp_filters" "TQFP*64*10x10mm*P0.5mm*" (at 0 0 0)
      (effects (font (size 1.27 1.27)) hide)
    )
  )
  (symbol "ATSAML21J18B-AUT" (extends "ATSAML21J16B-AUT")
    (property "Reference" "U" (at -17.78 45.72 0)
      (effects (font (size 1.27 1.27)))
    )
    (property "Value" "ATSAML21J18B-AUT" (at -15.24 -45.72 0)
      (effects (font (size 1.27 1.27)))
    )
    (property "Footprint" "Package_QFP:TQFP-64_10x10mm_P0.5mm" (at 30.48 45.72 0)
      (effects (font (size 1.27 1.27)) hide)
    )
    (property "Datasheet" "http://ww1.microchip.com/downloads/en/DeviceDoc/60001477A.pdf" (at 0 0 0)
      (effects (font (size 1.27 1.27)) hide)
    )
    (property "ki_keywords" "32-bit ARM Cortex-M0+ MCU Microcontroller" (at 0 0 0)
      (effects (font (size 1.27 1.27)) hide)
    )
    (property "ki_description" "SAM L21 Microchip SMART ARM-based Flash MCU, 48Mhz, 256K Flash, 32K SRAM, TQFP64" (at 0 0 0)
      (effects (font (size 1.27 1.27)) hide)
    )
    (property "ki_fp_filters" "TQFP*64*10x10mm*P0.5mm*" (at 0 0 0)
      (effects (font (size 1.27 1.27)) hide)
    )
  )
  (symbol "ATSAML21J16B-MUT" (in_bom yes) (on_board yes)
    (property "Reference" "U" (at -15.24 45.72 0)
      (effects (font (size 1.27 1.27)))
    )
    (property "Value" "ATSAML21J16B-MUT" (at -15.24 -45.72 0)
      (effects (font (size 1.27 1.27)))
    )
    (property "Footprint" "Package_DFN_QFN:QFN-64-1EP_9x9mm_P0.5mm_EP4.7x4.7mm" (at 33.02 45.72 0)
      (effects (font (size 1.27 1.27)) hide)
    )
    (property "Datasheet" "http://ww1.microchip.com/downloads/en/DeviceDoc/60001477A.pdf" (at 0 0 0)
      (effects (font (size 1.27 1.27)) hide)
    )
    (property "ki_keywords" "32-bit ARM Cortex-M0+ MCU Microcontroller" (at 0 0 0)
      (effects (font (size 1.27 1.27)) hide)
    )
    (property "ki_description" "SAM L21 Microchip SMART ARM-based Flash MCU, 48Mhz, 64K Flash, 8K SRAM, QFN64" (at 0 0 0)
      (effects (font (size 1.27 1.27)) hide)
    )
    (property "ki_fp_filters" "QFN*1EP*9x9mm*P0.5mm*" (at 0 0 0)
      (effects (font (size 1.27 1.27)) hide)
    )
    (symbol "ATSAML21J16B-MUT_0_1"
      (rectangle (start -15.24 43.18) (end 15.24 -43.18)
        (stroke (width 0.254) (type default))
        (fill (type background))
      )
    )
    (symbol "ATSAML21J16B-MUT_1_1"
      (pin bidirectional line (at -17.78 38.1 0) (length 2.54)
        (name "PA00" (effects (font (size 1.27 1.27))))
        (number "1" (effects (font (size 1.27 1.27))))
      )
      (pin bidirectional line (at 17.78 20.32 180) (length 2.54)
        (name "PB07" (effects (font (size 1.27 1.27))))
        (number "10" (effects (font (size 1.27 1.27))))
      )
      (pin bidirectional line (at 17.78 17.78 180) (length 2.54)
        (name "PB08" (effects (font (size 1.27 1.27))))
        (number "11" (effects (font (size 1.27 1.27))))
      )
      (pin bidirectional line (at 17.78 15.24 180) (length 2.54)
        (name "PB09" (effects (font (size 1.27 1.27))))
        (number "12" (effects (font (size 1.27 1.27))))
      )
      (pin bidirectional line (at -17.78 27.94 0) (length 2.54)
        (name "PA04" (effects (font (size 1.27 1.27))))
        (number "13" (effects (font (size 1.27 1.27))))
      )
      (pin bidirectional line (at -17.78 25.4 0) (length 2.54)
        (name "PA05" (effects (font (size 1.27 1.27))))
        (number "14" (effects (font (size 1.27 1.27))))
      )
      (pin bidirectional line (at -17.78 22.86 0) (length 2.54)
        (name "PA06" (effects (font (size 1.27 1.27))))
        (number "15" (effects (font (size 1.27 1.27))))
      )
      (pin bidirectional line (at -17.78 20.32 0) (length 2.54)
        (name "PA07" (effects (font (size 1.27 1.27))))
        (number "16" (effects (font (size 1.27 1.27))))
      )
      (pin bidirectional line (at -17.78 17.78 0) (length 2.54)
        (name "PA08" (effects (font (size 1.27 1.27))))
        (number "17" (effects (font (size 1.27 1.27))))
      )
      (pin bidirectional line (at -17.78 15.24 0) (length 2.54)
        (name "PA09" (effects (font (size 1.27 1.27))))
        (number "18" (effects (font (size 1.27 1.27))))
      )
      (pin bidirectional line (at -17.78 12.7 0) (length 2.54)
        (name "PA10" (effects (font (size 1.27 1.27))))
        (number "19" (effects (font (size 1.27 1.27))))
      )
      (pin bidirectional line (at -17.78 35.56 0) (length 2.54)
        (name "PA01" (effects (font (size 1.27 1.27))))
        (number "2" (effects (font (size 1.27 1.27))))
      )
      (pin bidirectional line (at -17.78 10.16 0) (length 2.54)
        (name "PA11" (effects (font (size 1.27 1.27))))
        (number "20" (effects (font (size 1.27 1.27))))
      )
      (pin power_in line (at -2.54 45.72 270) (length 2.54)
        (name "VDDIO" (effects (font (size 1.27 1.27))))
        (number "21" (effects (font (size 1.27 1.27))))
      )
      (pin power_in line (at 2.54 -45.72 90) (length 2.54)
        (name "GND" (effects (font (size 1.27 1.27))))
        (number "22" (effects (font (size 1.27 1.27))))
      )
      (pin bidirectional line (at 17.78 12.7 180) (length 2.54)
        (name "PB10" (effects (font (size 1.27 1.27))))
        (number "23" (effects (font (size 1.27 1.27))))
      )
      (pin bidirectional line (at 17.78 10.16 180) (length 2.54)
        (name "PB11" (effects (font (size 1.27 1.27))))
        (number "24" (effects (font (size 1.27 1.27))))
      )
      (pin bidirectional line (at 17.78 7.62 180) (length 2.54)
        (name "PB12" (effects (font (size 1.27 1.27))))
        (number "25" (effects (font (size 1.27 1.27))))
      )
      (pin bidirectional line (at 17.78 5.08 180) (length 2.54)
        (name "PB13" (effects (font (size 1.27 1.27))))
        (number "26" (effects (font (size 1.27 1.27))))
      )
      (pin bidirectional line (at 17.78 2.54 180) (length 2.54)
        (name "PB14" (effects (font (size 1.27 1.27))))
        (number "27" (effects (font (size 1.27 1.27))))
      )
      (pin bidirectional line (at 17.78 0 180) (length 2.54)
        (name "PB15" (effects (font (size 1.27 1.27))))
        (number "28" (effects (font (size 1.27 1.27))))
      )
      (pin bidirectional line (at -17.78 7.62 0) (length 2.54)
        (name "PA12" (effects (font (size 1.27 1.27))))
        (number "29" (effects (font (size 1.27 1.27))))
      )
      (pin bidirectional line (at -17.78 33.02 0) (length 2.54)
        (name "PA02" (effects (font (size 1.27 1.27))))
        (number "3" (effects (font (size 1.27 1.27))))
      )
      (pin bidirectional line (at -17.78 5.08 0) (length 2.54)
        (name "PA13" (effects (font (size 1.27 1.27))))
        (number "30" (effects (font (size 1.27 1.27))))
      )
      (pin bidirectional line (at -17.78 2.54 0) (length 2.54)
        (name "PA14" (effects (font (size 1.27 1.27))))
        (number "31" (effects (font (size 1.27 1.27))))
      )
      (pin bidirectional line (at -17.78 0 0) (length 2.54)
        (name "PA15" (effects (font (size 1.27 1.27))))
        (number "32" (effects (font (size 1.27 1.27))))
      )
      (pin passive line (at 2.54 -45.72 90) (length 2.54) hide
        (name "GND" (effects (font (size 1.27 1.27))))
        (number "33" (effects (font (size 1.27 1.27))))
      )
      (pin passive line (at -2.54 45.72 270) (length 2.54) hide
        (name "VDDIO" (effects (font (size 1.27 1.27))))
        (number "34" (effects (font (size 1.27 1.27))))
      )
      (pin bidirectional line (at -17.78 -2.54 0) (length 2.54)
        (name "PA16" (effects (font (size 1.27 1.27))))
        (number "35" (effects (font (size 1.27 1.27))))
      )
      (pin bidirectional line (at -17.78 -5.08 0) (length 2.54)
        (name "PA17" (effects (font (size 1.27 1.27))))
        (number "36" (effects (font (size 1.27 1.27))))
      )
      (pin bidirectional line (at -17.78 -7.62 0) (length 2.54)
        (name "PA18" (effects (font (size 1.27 1.27))))
        (number "37" (effects (font (size 1.27 1.27))))
      )
      (pin bidirectional line (at -17.78 -10.16 0) (length 2.54)
        (name "PA19" (effects (font (size 1.27 1.27))))
        (number "38" (effects (font (size 1.27 1.27))))
      )
      (pin bidirectional line (at 17.78 -2.54 180) (length 2.54)
        (name "PB16" (effects (font (size 1.27 1.27))))
        (number "39" (effects (font (size 1.27 1.27))))
      )
      (pin bidirectional line (at -17.78 30.48 0) (length 2.54)
        (name "PA03" (effects (font (size 1.27 1.27))))
        (number "4" (effects (font (size 1.27 1.27))))
      )
      (pin bidirectional line (at 17.78 -5.08 180) (length 2.54)
        (name "PB17" (effects (font (size 1.27 1.27))))
        (number "40" (effects (font (size 1.27 1.27))))
      )
      (pin bidirectional line (at -17.78 -12.7 0) (length 2.54)
        (name "PA20" (effects (font (size 1.27 1.27))))
        (number "41" (effects (font (size 1.27 1.27))))
      )
      (pin bidirectional line (at -17.78 -15.24 0) (length 2.54)
        (name "PA21" (effects (font (size 1.27 1.27))))
        (number "42" (effects (font (size 1.27 1.27))))
      )
      (pin bidirectional line (at -17.78 -17.78 0) (length 2.54)
        (name "PA22" (effects (font (size 1.27 1.27))))
        (number "43" (effects (font (size 1.27 1.27))))
      )
      (pin bidirectional line (at -17.78 -20.32 0) (length 2.54)
        (name "PA23" (effects (font (size 1.27 1.27))))
        (number "44" (effects (font (size 1.27 1.27))))
      )
      (pin bidirectional line (at -17.78 -22.86 0) (length 2.54)
        (name "PA24" (effects (font (size 1.27 1.27))))
        (number "45" (effects (font (size 1.27 1.27))))
      )
      (pin bidirectional line (at -17.78 -25.4 0) (length 2.54)
        (name "PA25" (effects (font (size 1.27 1.27))))
        (number "46" (effects (font (size 1.27 1.27))))
      )
      (pin passive line (at 2.54 -45.72 90) (length 2.54) hide
        (name "GND" (effects (font (size 1.27 1.27))))
        (number "47" (effects (font (size 1.27 1.27))))
      )
      (pin passive line (at -2.54 45.72 270) (length 2.54) hide
        (name "VDDIO" (effects (font (size 1.27 1.27))))
        (number "48" (effects (font (size 1.27 1.27))))
      )
      (pin bidirectional line (at 17.78 -17.78 180) (length 2.54)
        (name "PB22" (effects (font (size 1.27 1.27))))
        (number "49" (effects (font (size 1.27 1.27))))
      )
      (pin bidirectional line (at 17.78 27.94 180) (length 2.54)
        (name "PB04" (effects (font (size 1.27 1.27))))
        (number "5" (effects (font (size 1.27 1.27))))
      )
      (pin bidirectional line (at 17.78 -20.32 180) (length 2.54)
        (name "PB23" (effects (font (size 1.27 1.27))))
        (number "50" (effects (font (size 1.27 1.27))))
      )
      (pin bidirectional line (at -17.78 -27.94 0) (length 2.54)
        (name "PA27" (effects (font (size 1.27 1.27))))
        (number "51" (effects (font (size 1.27 1.27))))
      )
      (pin input line (at -17.78 -38.1 0) (length 2.54)
        (name "~{RESET}" (effects (font (size 1.27 1.27))))
        (number "52" (effects (font (size 1.27 1.27))))
      )
      (pin power_in line (at 2.54 45.72 270) (length 2.54)
        (name "VDDCORE" (effects (font (size 1.27 1.27))))
        (number "53" (effects (font (size 1.27 1.27))))
      )
      (pin passive line (at 2.54 -45.72 90) (length 2.54) hide
        (name "GND" (effects (font (size 1.27 1.27))))
        (number "54" (effects (font (size 1.27 1.27))))
      )
      (pin power_out line (at 5.08 45.72 270) (length 2.54)
        (name "VSW" (effects (font (size 1.27 1.27))))
        (number "55" (effects (font (size 1.27 1.27))))
      )
      (pin power_in line (at 7.62 45.72 270) (length 2.54)
        (name "VDDIN" (effects (font (size 1.27 1.27))))
        (number "56" (effects (font (size 1.27 1.27))))
      )
      (pin bidirectional line (at -17.78 -30.48 0) (length 2.54)
        (name "PA30" (effects (font (size 1.27 1.27))))
        (number "57" (effects (font (size 1.27 1.27))))
      )
      (pin bidirectional line (at -17.78 -33.02 0) (length 2.54)
        (name "PA31" (effects (font (size 1.27 1.27))))
        (number "58" (effects (font (size 1.27 1.27))))
      )
      (pin bidirectional line (at 17.78 -30.48 180) (length 2.54)
        (name "PB30" (effects (font (size 1.27 1.27))))
        (number "59" (effects (font (size 1.27 1.27))))
      )
      (pin bidirectional line (at 17.78 25.4 180) (length 2.54)
        (name "PB05" (effects (font (size 1.27 1.27))))
        (number "6" (effects (font (size 1.27 1.27))))
      )
      (pin bidirectional line (at 17.78 -33.02 180) (length 2.54)
        (name "PB31" (effects (font (size 1.27 1.27))))
        (number "60" (effects (font (size 1.27 1.27))))
      )
      (pin bidirectional line (at 17.78 38.1 180) (length 2.54)
        (name "PB00" (effects (font (size 1.27 1.27))))
        (number "61" (effects (font (size 1.27 1.27))))
      )
      (pin bidirectional line (at 17.78 35.56 180) (length 2.54)
        (name "PB01" (effects (font (size 1.27 1.27))))
        (number "62" (effects (font (size 1.27 1.27))))
      )
      (pin bidirectional line (at 17.78 33.02 180) (length 2.54)
        (name "PB02" (effects (font (size 1.27 1.27))))
        (number "63" (effects (font (size 1.27 1.27))))
      )
      (pin bidirectional line (at 17.78 30.48 180) (length 2.54)
        (name "PB03" (effects (font (size 1.27 1.27))))
        (number "64" (effects (font (size 1.27 1.27))))
      )
      (pin power_in line (at -2.54 -45.72 90) (length 2.54)
        (name "GNDANA" (effects (font (size 1.27 1.27))))
        (number "7" (effects (font (size 1.27 1.27))))
      )
      (pin power_in line (at -7.62 45.72 270) (length 2.54)
        (name "VDDANA" (effects (font (size 1.27 1.27))))
        (number "8" (effects (font (size 1.27 1.27))))
      )
      (pin bidirectional line (at 17.78 22.86 180) (length 2.54)
        (name "PB06" (effects (font (size 1.27 1.27))))
        (number "9" (effects (font (size 1.27 1.27))))
      )
    )
  )
  (symbol "ATSAML21J17B-MUT" (extends "ATSAML21J16B-MUT")
    (property "Reference" "U" (at -17.78 45.72 0)
      (effects (font (size 1.27 1.27)))
    )
    (property "Value" "ATSAML21J17B-MUT" (at -15.24 -45.72 0)
      (effects (font (size 1.27 1.27)))
    )
    (property "Footprint" "Package_DFN_QFN:QFN-64-1EP_9x9mm_P0.5mm_EP4.7x4.7mm" (at 33.02 45.72 0)
      (effects (font (size 1.27 1.27)) hide)
    )
    (property "Datasheet" "http://ww1.microchip.com/downloads/en/DeviceDoc/60001477A.pdf" (at 0 0 0)
      (effects (font (size 1.27 1.27)) hide)
    )
    (property "ki_keywords" "32-bit ARM Cortex-M0+ MCU Microcontroller" (at 0 0 0)
      (effects (font (size 1.27 1.27)) hide)
    )
    (property "ki_description" "SAM L21 Microchip SMART ARM-based Flash MCU, 48Mhz, 64K Flash, 8K SRAM, QFN64" (at 0 0 0)
      (effects (font (size 1.27 1.27)) hide)
    )
    (property "ki_fp_filters" "QFN*1EP*9x9mm*P0.5mm*" (at 0 0 0)
      (effects (font (size 1.27 1.27)) hide)
    )
  )
  (symbol "ATSAML21J18B-MUT" (extends "ATSAML21J16B-MUT")
    (property "Reference" "U" (at -17.78 45.72 0)
      (effects (font (size 1.27 1.27)))
    )
    (property "Value" "ATSAML21J18B-MUT" (at -15.24 -45.72 0)
      (effects (font (size 1.27 1.27)))
    )
    (property "Footprint" "Package_DFN_QFN:QFN-64-1EP_9x9mm_P0.5mm_EP4.7x4.7mm" (at 33.02 45.72 0)
      (effects (font (size 1.27 1.27)) hide)
    )
    (property "Datasheet" "http://ww1.microchip.com/downloads/en/DeviceDoc/60001477A.pdf" (at 0 0 0)
      (effects (font (size 1.27 1.27)) hide)
    )
    (property "ki_keywords" "32-bit ARM Cortex-M0+ MCU Microcontroller" (at 0 0 0)
      (effects (font (size 1.27 1.27)) hide)
    )
    (property "ki_description" "SAM L21 Microchip SMART ARM-based Flash MCU, 48Mhz, 64K Flash, 8K SRAM, QFN64" (at 0 0 0)
      (effects (font (size 1.27 1.27)) hide)
    )
    (property "ki_fp_filters" "QFN*1EP*9x9mm*P0.5mm*" (at 0 0 0)
      (effects (font (size 1.27 1.27)) hide)
    )
  )
)
